Compute disproportionality — compute_dispro • vigicaen
…
# could do the same with adrs

many_adrs <-
  names(ex_$a_llt)

demo |>
compute_dispro(
  y = many_adrs,
  x = many_drugs
)
#> # A tibble: 24 × 9
#>    y             x            n_obs  n_exp or    or_ci      ic  ic_tail ci_level
#>    <chr>         <chr>        <dbl>  <dbl> <chr> <chr>   <dbl>    <dbl> <chr>   
#>  1 a_embolism    ipilimumab       1  1.03  0.96  (0.1… -0.0305  -3.83   95%     
#>  2 a_colitis     ipilimumab      20 11.9   2.09  (1.2…  0.722    0.0210 95%     
#>  3 a_pneumonitis ipilimumab      12 11.8   1.02  (0.5…  0.0220  -0.908  95%     
#>  4 a_embolism    atezolizumab     1  0.828 1.24  (0.1…  0.176   -3.62   95%     
#>  5 a_colitis     atezolizumab     7  9.57  0.68  (0.3… -0.425   -1.69   95%     
#>  6 a_pneumonitis atezolizumab     0  9.48  -     -     -4.32   -14.3    95%     
#>  7 a_embolism    durvalumab       1  0.816 1.26  (0.1…  0.189   -3.61   95%     
#>  8 a_colitis     durvalumab       9  9.43  0.94  (0.4… -0.0638  -1.16   95%     
#>  9 a_pneumonitis durvalumab       6  9.34  0.58  (0.2… -0.598   -1.97   95%     
#> 10 a_embolism    nivolumab        1  2.7   0.29  (0.0… -1.09    -4.89   95%     
#> # ℹ 14 more rows
…
